Clase 5: Web Scraping avanzado
…
<img src="class_5_files/request_blog.png" title="Ejemplo de headers" alt="Ejemplo de headers" width="70%" style="display: block; margin: auto;" />

---

## HTTP Cabeceras de respuesta

Ejemplo de cabecera de respuesta luego de capturar <https://blog.desuc.cl>:

```r
s_blog |> headers() |> enframe() |> mutate(value = as.character(value))
```

```
## # A tibble: 21 × 2
##    name                        value                           
##    <chr>                       <chr>                           
##  1 server                      "GitHub.com"                    
##  2 content-type                "text/html; charset=utf-8"      
##  3 last-modified               "Thu, 12 May 2022 13:29:33 GMT" 
##  4 access-control-allow-origin "*"                             
##  5 etag                        "W/\"627d0bbd-15f75\""          
##  6 expires                     "Tue, 07 Jun 2022 16:45:24 GMT" 
##  7 cache-control               "max-age=600"                   
##  8 content-encoding            "gzip"                          
##  9 x-proxy-cache               "MISS"                          
## 10 x-github-request-id         "8A20:6CFA:33702:3B959:629F7E4C"
## # … with 11 more rows
```
…
